{
  "kunstwerk": {
    "enable_curses": false,
    "enable_metrics": false,
    "interfaces": {
      "fluepnet0": {
            "type": "SocketTxInterface",
            "socket_path": "./fluepnet0.sock",
            "tx_count": 0
      }
    },
    "fluepdots": {
      "1": {
        "x": 0,
        "y": 115,
        "rotation": 90,
        "interface": "fluepnet0"
      },
      "2": {
        "x": 16,
        "y": 115,
        "rotation": 90,
        "interface": "fluepnet0"
      },
      "3": {
        "x": 32,
        "y": 115,
        "rotation": 90,
        "interface": "fluepnet0"
      },
      "4": {
        "x": 48,
        "y": 115,
        "rotation": 90,
        "interface": "fluepnet0"
      },
      "5": {
        "x": 64,
        "y": 115,
        "rotation": 90,
        "interface": "fluepnet0"
      },
      "6": {
        "x": 80,
        "y": 115,
        "rotation": 90,
        "interface": "fluepnet0"
      },
      "7": {
        "x": 96,
        "y": 115,
        "rotation": 90,
        "interface": "fluepnet0"
      },
      "8": {
        "x": 112,
        "y": 115,
        "rotation": 90,
        "interface": "fluepnet0"
      },
      "9": {
        "x": 128,
        "y": 115,
        "rotation": 90,
        "interface": "fluepnet0"
      },
      "10": {
        "x": 144,
        "y": 115,
        "rotation": 90,
        "interface": "fluepnet0"
      },
      "11": {
        "x": 160,
        "y": 115,
        "rotation": 90,
        "interface": "fluepnet0"
      },
      "12": {
        "x": 176,
        "y": 115,
        "rotation": 90,
        "interface": "fluepnet0"
      },
      "13": {
        "x": 0,
        "y": 0,
        "rotation": 90,
        "interface": "fluepnet0"
      },
      "14": {
        "x": 16,
        "y": 0,
        "rotation": 90,
        "interface": "fluepnet0"
      },
      "15": {
        "x": 32,
        "y": 0,
        "rotation": 90,
        "interface": "fluepnet0"
      },
      "16": {
        "x": 48,
        "y": 0,
        "rotation": 90,
        "interface": "fluepnet0"
      },
      "17": {
        "x": 64,
        "y": 0,
        "rotation": 90,
        "interface": "fluepnet0"
      },
      "18": {
        "x": 80,
        "y": 0,
        "rotation": 90,
        "interface": "fluepnet0"
      },
      "19": {
        "x": 96,
        "y": 0,
        "rotation": 90,
        "interface": "fluepnet0"
      },
      "20": {
        "x": 112,
        "y": 0,
        "rotation": 90,
        "interface": "fluepnet0"
      },
      "21": {
        "x": 128,
        "y": 0,
        "rotation": 90,
        "interface": "fluepnet0"
      },
      "22": {
        "x": 144,
        "y": 0,
        "rotation": 90,
        "interface": "fluepnet0"
      },
      "23": {
        "x": 160,
        "y": 0,
        "rotation": 90,
        "interface": "fluepnet0"
      },
      "24": {
        "x": 176,
        "y": 0,
        "rotation": 90,
        "interface": "fluepnet0"
      },
      "25": {
        "x": 192,
        "y": 115,
        "rotation": 90,
        "interface": "fluepnet0"
      },
      "26": {
        "x": 208,
        "y": 115,
        "rotation": 90,
        "interface": "fluepnet0"
      },
      "27": {
        "x": 224,
        "y": 115,
        "rotation": 90,
        "interface": "fluepnet0"
      },
      "28": {
        "x": 240,
        "y": 115,
        "rotation": 90,
        "interface": "fluepnet0"
      },
      "29": {
        "x": 256,
        "y": 115,
        "rotation": 90,
        "interface": "fluepnet0"
      },
      "30": {
        "x": 272,
        "y": 115,
        "rotation": 90,
        "interface": "fluepnet0"
      },
      "31": {
        "x": 288,
        "y": 115,
        "rotation": 90,
        "interface": "fluepnet0"
      },
      "32": {
        "x": 304,
        "y": 115,
        "rotation": 90,
        "interface": "fluepnet0"
      },
      "33": {
        "x": 320,
        "y": 115,
        "rotation": 90,
        "interface": "fluepnet0"
      },
      "34": {
        "x": 336,
        "y": 115,
        "rotation": 90,
        "interface": "fluepnet0"
      },
      "35": {
        "x": 352,
        "y": 115,
        "rotation": 90,
        "interface": "fluepnet0"
      },
      "36": {
        "x": 368,
        "y": 115,
        "rotation": 90,
        "interface": "fluepnet0"
      },
      "37": {
        "x": 192,
        "y": 0,
        "rotation": 90,
        "interface": "fluepnet0"
      },
      "38": {
        "x": 208,
        "y": 0,
        "rotation": 90,
        "interface": "fluepnet0"
      },
      "39": {
        "x": 224,
        "y": 0,
        "rotation": 90,
        "interface": "fluepnet0"
      },
      "40": {
        "x": 240,
        "y": 0,
        "rotation": 90,
        "interface": "fluepnet0"
      },
      "41": {
        "x": 256,
        "y": 0,
        "rotation": 90,
        "interface": "fluepnet0"
      },
      "42": {
        "x": 272,
        "y": 0,
        "rotation": 90,
        "interface": "fluepnet0"
      },
      "43": {
        "x": 288,
        "y": 0,
        "rotation": 90,
        "interface": "fluepnet0"
      },
      "44": {
        "x": 304,
        "y": 0,
        "rotation": 90,
        "interface": "fluepnet0"
      },
      "45": {
        "x": 320,
        "y": 0,
        "rotation": 90,
        "interface": "fluepnet0"
      },
      "46": {
        "x": 336,
        "y": 0,
        "rotation": 90,
        "interface": "fluepnet0"
      },
      "47": {
        "x": 352,
        "y": 0,
        "rotation": 90,
        "interface": "fluepnet0"
      },
      "48": {
        "x": 368,
        "y": 0,
        "rotation": 90,
        "interface": "fluepnet0"
      },
      "49": {
        "x": 384,
        "y": 115,
        "rotation": 90,
        "interface": "fluepnet0"
      },
      "50": {
        "x": 400,
        "y": 115,
        "rotation": 90,
        "interface": "fluepnet0"
      },
      "51": {
        "x": 416,
        "y": 115,
        "rotation": 90,
        "interface": "fluepnet0"
      },
      "52": {
        "x": 432,
        "y": 115,
        "rotation": 90,
        "interface": "fluepnet0"
      },
      "53": {
        "x": 448,
        "y": 115,
        "rotation": 90,
        "interface": "fluepnet0"
      },
      "54": {
        "x": 464,
        "y": 115,
        "rotation": 90,
        "interface": "fluepnet0"
      },
      "55": {
        "x": 480,
        "y": 115,
        "rotation": 90,
        "interface": "fluepnet0"
      },
      "56": {
        "x": 496,
        "y": 115,
        "rotation": 90,
        "interface": "fluepnet0"
      },
      "57": {
        "x": 512,
        "y": 115,
        "rotation": 90,
        "interface": "fluepnet0"
      },
      "58": {
        "x": 528,
        "y": 115,
        "rotation": 90,
        "interface": "fluepnet0"
      },
      "59": {
        "x": 544,
        "y": 115,
        "rotation": 90,
        "interface": "fluepnet0"
      },
      "60": {
        "x": 560,
        "y": 115,
        "rotation": 90,
        "interface": "fluepnet0"
      },
      "61": {
        "x": 384,
        "y": 0,
        "rotation": 90,
        "interface": "fluepnet0"
      },
      "62": {
        "x": 400,
        "y": 0,
        "rotation": 90,
        "interface": "fluepnet0"
      },
      "63": {
        "x": 416,
        "y": 0,
        "rotation": 90,
        "interface": "fluepnet0"
      },
      "64": {
        "x": 432,
        "y": 0,
        "rotation": 90,
        "interface": "fluepnet0"
      },
      "65": {
        "x": 448,
        "y": 0,
        "rotation": 90,
        "interface": "fluepnet0"
      },
      "66": {
        "x": 464,
        "y": 0,
        "rotation": 90,
        "interface": "fluepnet0"
      },
      "67": {
        "x": 480,
        "y": 0,
        "rotation": 90,
        "interface": "fluepnet0"
      },
      "68": {
        "x": 496,
        "y": 0,
        "rotation": 90,
        "interface": "fluepnet0"
      },
      "69": {
        "x": 512,
        "y": 0,
        "rotation": 90,
        "interface": "fluepnet0"
      },
      "70": {
        "x": 528,
        "y": 0,
        "rotation": 90,
        "interface": "fluepnet0"
      },
      "71": {
        "x": 544,
        "y": 0,
        "rotation": 90,
        "interface": "fluepnet0"
      },
      "72": {
        "x": 560,
        "y": 0,
        "rotation": 90,
        "interface": "fluepnet0"
      }
    }
  }
}
