{
  "kunstwerk": {
    "enable_curses": false,
    "enable_metrics": false,
    "interfaces": {
      "fluepnet0": {
        "type": "MirrorTxInterface",
        "tx_count": 0,
        "interfaces": {
          "fluepnet0_sock": {
            "type": "SocketTxInterface",
            "socket_path": "./fluepnet0.sock",
            "tx_count": 0
          }
        }
      }
    },
    "fluepdots": {
      "42": {
        "location_x": 0,
        "location_y": 0,
        "rotation": 0,
        "interface": "fluepnet0"
      }
    }
  }
}
